^C:\USERS\JAVAJUMPER\SOURCE\REPOS\LAB12\TASK2\X64\DEBUG\TASK2.OBJ
C:\USERS\JAVAJUMPER\SOURCE\REPOS\LAB12\X64\DEBUG\TASK2.EXE
C:\USERS\JAVAJUMPER\SOURCE\REPOS\LAB12\TASK2\X64\DEBUG\TASK2.ILK
C:\USERS\JAVAJUMPER\SOURCE\REPOS\LAB12\X64\DEBUG\TASK2.PDB
